…
``` r
laquinta %>% 
  count(state) %>% 
  arrange(n)
```

    ## # A tibble: 59 × 2
    ##    state     n
    ##    <chr> <int>
    ##  1 AG        1
    ##  2 ANT       1
    ##  3 BC        1
    ##  4 CH        1
    ##  5 FM        1
    ##  6 ME        1
    ##  7 ON        1
    ##  8 QR        1
    ##  9 SL        1
    ## 10 VE        1
    ## # ℹ 49 more rows
…
- most La Quintas: Texas

- fewest La Quintas: Maine

Not surprised by results

``` r
dennys %>%
  count(state) %>%
  inner_join(states, by = c("state" = "abbreviation")) %>%  
  arrange(n)
```

    ## # A tibble: 51 × 4
    ##    state     n name                     area
    ##    <chr> <int> <chr>                   <dbl>
    ##  1 DE        1 Delaware               2489. 
    ##  2 DC        2 District of Columbia     68.3
    ##  3 VT        2 Vermont                9616. 
    ##  4 AK        3 Alaska               665384. 
    ##  5 IA        3 Iowa                  56273. 
    ##  6 NH        3 New Hampshire          9349. 
    ##  7 SD        3 South Dakota          77116. 
    ##  8 WV        3 West Virginia         24230. 
    ##  9 LA        4 Louisiana             52378. 
    ## 10 MT        4 Montana              147040. 
    ## # ℹ 41 more rows

``` r
laquinta_us %>% 
  count(state) %>% 
  arrange(n)
```

    ## # A tibble: 48 × 2
    ##    state     n
    ##    <chr> <int>
    ##  1 ME        1
    ##  2 AK        2
    ##  3 NH        2
    ##  4 RI        2
    ##  5 SD        2
    ##  6 VT        2
    ##  7 WV        3
    ##  8 WY        3
    ##  9 IA        4
    ## 10 MI        4
    ## # ℹ 38 more rows
…
